%YAML 1.1
%TAG !u! tag:unity3d.com,2011:
--- !u!74 &7400000
AnimationClip:
  m_ObjectHideFlags: 0
  m_CorrespondingSourceObject: {fileID: 0}
  m_PrefabInstance: {fileID: 0}
  m_PrefabAsset: {fileID: 0}
  m_Name: Enemy_Death
  serializedVersion: 6
  m_Legacy: 0
  m_Compressed: 0
  m_UseHighQualityCurve: 1
  m_RotationCurves: []
  m_CompressedRotationCurves: []
  m_EulerCurves: []
  m_PositionCurves: []
  m_ScaleCurves: []
  m_FloatCurves: []
  m_PPtrCurves:
  - curve:
    - time: 0
      value: {fileID: -9192638271177797499, guid: 17e71f00607a1704bb2ee17e0f6b3802, type: 3}
    - time: 0.016666668
      value: {fileID: 8559509556701815258, guid: 17e71f00607a1704bb2ee17e0f6b3802, type: 3}
    - time: 0.033333335
      value: {fileID: -5286180679089938723, guid: 17e71f00607a1704bb2ee17e0f6b3802, type: 3}
    - time: 0.05
      value: {fileID: -1891855120789479077, guid: 17e71f00607a1704bb2ee17e0f6b3802, type: 3}
    - time: 0.06666667
      value: {fileID: -5582970244224541034, guid: 17e71f00607a1704bb2ee17e0f6b3802, type: 3}
    - time: 0.083333336
      value: {fileID: 830680230883465780, guid: 17e71f00607a1704bb2ee17e0f6b3802, type: 3}
    - time: 0.1
      value: {fileID: 6596258498841548387, guid: 17e71f00607a1704bb2ee17e0f6b3802, type: 3}
    - time: 0.11666667
      value: {fileID: -4147321062969920389, guid: 17e71f00607a1704bb2ee17e0f6b3802, type: 3}
    - time: 0.13333334
      value: {fileID: 2602597460433512539, guid: 17e71f00607a1704bb2ee17e0f6b3802, type: 3}
    - time: 0.15
      value: {fileID: -2134515381725696932, guid: 17e71f00607a1704bb2ee17e0f6b3802, type: 3}
    - time: 0.16666667
      value: {fileID: -270028788923616002, guid: 17e71f00607a1704bb2ee17e0f6b3802, type: 3}
    - time: 0.18333334
      value: {fileID: -5121890589552714621, guid: 17e71f00607a1704bb2ee17e0f6b3802, type: 3}
    - time: 0.2
      value: {fileID: 627783550670650900, guid: 17e71f00607a1704bb2ee17e0f6b3802, type: 3}
    - time: 0.21666667
      value: {fileID: 2891620135027730149, guid: 17e71f00607a1704bb2ee17e0f6b3802, type: 3}
    - time: 0.23333333
      value: {fileID: 7975919600420608313, guid: 17e71f00607a1704bb2ee17e0f6b3802, type: 3}
    - time: 0.25
      value: {fileID: 6275631635777415744, guid: 17e71f00607a1704bb2ee17e0f6b3802, type: 3}
    - time: 0.26666668
      value: {fileID: -9015114149152096869, guid: 17e71f00607a1704bb2ee17e0f6b3802, type: 3}
    - time: 0.28333333
      value: {fileID: -133209616158212645, guid: 17e71f00607a1704bb2ee17e0f6b3802, type: 3}
    - time: 0.3
      value: {fileID: -7524816321260968566, guid: 17e71f00607a1704bb2ee17e0f6b3802, type: 3}
    - time: 0.31666666
      value: {fileID: -3394814105837533734, guid: 17e71f00607a1704bb2ee17e0f6b3802, type: 3}
    - time: 0.33333334
      value: {fileID: -7933534624763666014, guid: 17e71f00607a1704bb2ee17e0f6b3802, type: 3}
    - time: 0.35
      value: {fileID: -5417755882475958080, guid: 17e71f00607a1704bb2ee17e0f6b3802, type: 3}
    - time: 0.36666667
      value: {fileID: -3414521176158850147, guid: 17e71f00607a1704bb2ee17e0f6b3802, type: 3}
    - time: 0.38333333
      value: {fileID: -965786126583861285, guid: 17e71f00607a1704bb2ee17e0f6b3802, type: 3}
    - time: 0.4
      value: {fileID: 1642537455366495548, guid: 17e71f00607a1704bb2ee17e0f6b3802, type: 3}
    - time: 0.41666666
      value: {fileID: -3651286794321121059, guid: 17e71f00607a1704bb2ee17e0f6b3802, type: 3}
    - time: 0.43333334
      value: {fileID: 2672676445645146844, guid: 17e71f00607a1704bb2ee17e0f6b3802, type: 3}
    - time: 0.45
      value: {fileID: -9222098201093564953, guid: 17e71f00607a1704bb2ee17e0f6b3802, type: 3}
    - time: 0.46666667
      value: {fileID: -2642929344600922017, guid: 17e71f00607a1704bb2ee17e0f6b3802, type: 3}
    - time: 0.48333332
      value: {fileID: -2944993680502962181, guid: 17e71f00607a1704bb2ee17e0f6b3802, type: 3}
    - time: 0.5
      value: {fileID: 4554454351487708354, guid: 17e71f00607a1704bb2ee17e0f6b3802, type: 3}
    - time: 0.51666665
      value: {fileID: -9060760346811246521, guid: 17e71f00607a1704bb2ee17e0f6b3802, type: 3}
    - time: 0.53333336
      value: {fileID: 9131661562640678449, guid: 17e71f00607a1704bb2ee17e0f6b3802, type: 3}
    - time: 0.55
      value: {fileID: -5402670187864525591, guid: 17e71f00607a1704bb2ee17e0f6b3802, type: 3}
    - time: 0.56666666
      value: {fileID: -3313155847935648961, guid: 17e71f00607a1704bb2ee17e0f6b3802, type: 3}
    - time: 0.5833333
      value: {fileID: 7431067452860873986, guid: 17e71f00607a1704bb2ee17e0f6b3802, type: 3}
    - time: 0.6
      value: {fileID: -8628563195959284819, guid: 17e71f00607a1704bb2ee17e0f6b3802, type: 3}
    - time: 0.6166667
      value: {fileID: -1067707138230432104, guid: 17e71f00607a1704bb2ee17e0f6b3802, type: 3}
    - time: 0.6333333
      value: {fileID: -9099804718706319264, guid: 17e71f00607a1704bb2ee17e0f6b3802, type: 3}
    - time: 0.65
      value: {fileID: -8452264248005673255, guid: 17e71f00607a1704bb2ee17e0f6b3802, type: 3}
    - time: 0.6666667
      value: {fileID: 4956316872046261718, guid: 17e71f00607a1704bb2ee17e0f6b3802, type: 3}
    - time: 0.68333334
      value: {fileID: -3320764515579702143, guid: 17e71f00607a1704bb2ee17e0f6b3802, type: 3}
    - time: 0.7
      value: {fileID: 7078651942674294, guid: 17e71f00607a1704bb2ee17e0f6b3802, type: 3}
    - time: 0.71666664
      value: {fileID: -3393962440894326080, guid: 17e71f00607a1704bb2ee17e0f6b3802, type: 3}
    - time: 0.73333335
      value: {fileID: -6623607143798413520, guid: 17e71f00607a1704bb2ee17e0f6b3802, type: 3}
    - time: 0.75
      value: {fileID: -2548998632814200824, guid: 17e71f00607a1704bb2ee17e0f6b3802, type: 3}
    - time: 0.76666665
      value: {fileID: -2796753400123811232, guid: 17e71f00607a1704bb2ee17e0f6b3802, type: 3}
    - time: 0.78333336
      value: {fileID: 1775110578640105739, guid: 17e71f00607a1704bb2ee17e0f6b3802, type: 3}
    - time: 0.8
      value: {fileID: 231499027750863504, guid: 17e71f00607a1704bb2ee17e0f6b3802, type: 3}
    - time: 0.81666666
      value: {fileID: -5578032639966830706, guid: 17e71f00607a1704bb2ee17e0f6b3802, type: 3}
    - time: 0.8333333
      value: {fileID: -1836682835495027089, guid: 17e71f00607a1704bb2ee17e0f6b3802, type: 3}
    - time: 0.85
      value: {fileID: -1694171741245988256, guid: 17e71f00607a1704bb2ee17e0f6b3802, type: 3}
    - time: 0.8666667
      value: {fileID: 1781820827490856197, guid: 17e71f00607a1704bb2ee17e0f6b3802, type: 3}
    - time: 0.8833333
      value: {fileID: -2667785736821589343, guid: 17e71f00607a1704bb2ee17e0f6b3802, type: 3}
    - time: 0.9
      value: {fileID: 268679366251895969, guid: 17e71f00607a1704bb2ee17e0f6b3802, type: 3}
    - time: 0.9166667
      value: {fileID: 1149902113584035499, guid: 17e71f00607a1704bb2ee17e0f6b3802, type: 3}
    - time: 0.93333334
      value: {fileID: 2410421448527568416, guid: 17e71f00607a1704bb2ee17e0f6b3802, type: 3}
    - time: 0.95
      value: {fileID: -7371972079557420496, guid: 17e71f00607a1704bb2ee17e0f6b3802, type: 3}
    - time: 0.96666664
      value: {fileID: 7122593345317962848, guid: 17e71f00607a1704bb2ee17e0f6b3802, type: 3}
    - time: 0.98333335
      value: {fileID: -2442721795725574509, guid: 17e71f00607a1704bb2ee17e0f6b3802, type: 3}
    attribute: m_Sprite
    path: 
    classID: 212
    script: {fileID: 0}
  m_SampleRate: 60
  m_WrapMode: 0
  m_Bounds:
    m_Center: {x: 0, y: 0, z: 0}
    m_Extent: {x: 0, y: 0, z: 0}
  m_ClipBindingConstant:
    genericBindings:
    - serializedVersion: 2
      path: 0
      attribute: 0
      script: {fileID: 0}
      typeID: 212
      customType: 23
      isPPtrCurve: 1
    pptrCurveMapping:
    - {fileID: -9192638271177797499, guid: 17e71f00607a1704bb2ee17e0f6b3802, type: 3}
    - {fileID: 8559509556701815258, guid: 17e71f00607a1704bb2ee17e0f6b3802, type: 3}
    - {fileID: -5286180679089938723, guid: 17e71f00607a1704bb2ee17e0f6b3802, type: 3}
    - {fileID: -1891855120789479077, guid: 17e71f00607a1704bb2ee17e0f6b3802, type: 3}
    - {fileID: -5582970244224541034, guid: 17e71f00607a1704bb2ee17e0f6b3802, type: 3}
    - {fileID: 830680230883465780, guid: 17e71f00607a1704bb2ee17e0f6b3802, type: 3}
    - {fileID: 6596258498841548387, guid: 17e71f00607a1704bb2ee17e0f6b3802, type: 3}
    - {fileID: -4147321062969920389, guid: 17e71f00607a1704bb2ee17e0f6b3802, type: 3}
    - {fileID: 2602597460433512539, guid: 17e71f00607a1704bb2ee17e0f6b3802, type: 3}
    - {fileID: -2134515381725696932, guid: 17e71f00607a1704bb2ee17e0f6b3802, type: 3}
    - {fileID: -270028788923616002, guid: 17e71f00607a1704bb2ee17e0f6b3802, type: 3}
    - {fileID: -5121890589552714621, guid: 17e71f00607a1704bb2ee17e0f6b3802, type: 3}
    - {fileID: 627783550670650900, guid: 17e71f00607a1704bb2ee17e0f6b3802, type: 3}
    - {fileID: 2891620135027730149, guid: 17e71f00607a1704bb2ee17e0f6b3802, type: 3}
    - {fileID: 7975919600420608313, guid: 17e71f00607a1704bb2ee17e0f6b3802, type: 3}
    - {fileID: 6275631635777415744, guid: 17e71f00607a1704bb2ee17e0f6b3802, type: 3}
    - {fileID: -9015114149152096869, guid: 17e71f00607a1704bb2ee17e0f6b3802, type: 3}
    - {fileID: -133209616158212645, guid: 17e71f00607a1704bb2ee17e0f6b3802, type: 3}
    - {fileID: -7524816321260968566, guid: 17e71f00607a1704bb2ee17e0f6b3802, type: 3}
    - {fileID: -3394814105837533734, guid: 17e71f00607a1704bb2ee17e0f6b3802, type: 3}
    - {fileID: -7933534624763666014, guid: 17e71f00607a1704bb2ee17e0f6b3802, type: 3}
    - {fileID: -5417755882475958080, guid: 17e71f00607a1704bb2ee17e0f6b3802, type: 3}
    - {fileID: -3414521176158850147, guid: 17e71f00607a1704bb2ee17e0f6b3802, type: 3}
    - {fileID: -965786126583861285, guid: 17e71f00607a1704bb2ee17e0f6b3802, type: 3}
    - {fileID: 1642537455366495548, guid: 17e71f00607a1704bb2ee17e0f6b3802, type: 3}
    - {fileID: -3651286794321121059, guid: 17e71f00607a1704bb2ee17e0f6b3802, type: 3}
    - {fileID: 2672676445645146844, guid: 17e71f00607a1704bb2ee17e0f6b3802, type: 3}
    - {fileID: -9222098201093564953, guid: 17e71f00607a1704bb2ee17e0f6b3802, type: 3}
    - {fileID: -2642929344600922017, guid: 17e71f00607a1704bb2ee17e0f6b3802, type: 3}
    - {fileID: -2944993680502962181, guid: 17e71f00607a1704bb2ee17e0f6b3802, type: 3}
    - {fileID: 4554454351487708354, guid: 17e71f00607a1704bb2ee17e0f6b3802, type: 3}
    - {fileID: -9060760346811246521, guid: 17e71f00607a1704bb2ee17e0f6b3802, type: 3}
    - {fileID: 9131661562640678449, guid: 17e71f00607a1704bb2ee17e0f6b3802, type: 3}
    - {fileID: -5402670187864525591, guid: 17e71f00607a1704bb2ee17e0f6b3802, type: 3}
    - {fileID: -3313155847935648961, guid: 17e71f00607a1704bb2ee17e0f6b3802, type: 3}
    - {fileID: 7431067452860873986, guid: 17e71f00607a1704bb2ee17e0f6b3802, type: 3}
    - {fileID: -8628563195959284819, guid: 17e71f00607a1704bb2ee17e0f6b3802, type: 3}
    - {fileID: -1067707138230432104, guid: 17e71f00607a1704bb2ee17e0f6b3802, type: 3}
    - {fileID: -9099804718706319264, guid: 17e71f00607a1704bb2ee17e0f6b3802, type: 3}
    - {fileID: -8452264248005673255, guid: 17e71f00607a1704bb2ee17e0f6b3802, type: 3}
    - {fileID: 4956316872046261718, guid: 17e71f00607a1704bb2ee17e0f6b3802, type: 3}
    - {fileID: -3320764515579702143, guid: 17e71f00607a1704bb2ee17e0f6b3802, type: 3}
    - {fileID: 7078651942674294, guid: 17e71f00607a1704bb2ee17e0f6b3802, type: 3}
    - {fileID: -3393962440894326080, guid: 17e71f00607a1704bb2ee17e0f6b3802, type: 3}
    - {fileID: -6623607143798413520, guid: 17e71f00607a1704bb2ee17e0f6b3802, type: 3}
    - {fileID: -2548998632814200824, guid: 17e71f00607a1704bb2ee17e0f6b3802, type: 3}
    - {fileID: -2796753400123811232, guid: 17e71f00607a1704bb2ee17e0f6b3802, type: 3}
    - {fileID: 1775110578640105739, guid: 17e71f00607a1704bb2ee17e0f6b3802, type: 3}
    - {fileID: 231499027750863504, guid: 17e71f00607a1704bb2ee17e0f6b3802, type: 3}
    - {fileID: -5578032639966830706, guid: 17e71f00607a1704bb2ee17e0f6b3802, type: 3}
    - {fileID: -1836682835495027089, guid: 17e71f00607a1704bb2ee17e0f6b3802, type: 3}
    - {fileID: -1694171741245988256, guid: 17e71f00607a1704bb2ee17e0f6b3802, type: 3}
    - {fileID: 1781820827490856197, guid: 17e71f00607a1704bb2ee17e0f6b3802, type: 3}
    - {fileID: -2667785736821589343, guid: 17e71f00607a1704bb2ee17e0f6b3802, type: 3}
    - {fileID: 268679366251895969, guid: 17e71f00607a1704bb2ee17e0f6b3802, type: 3}
    - {fileID: 1149902113584035499, guid: 17e71f00607a1704bb2ee17e0f6b3802, type: 3}
    - {fileID: 2410421448527568416, guid: 17e71f00607a1704bb2ee17e0f6b3802, type: 3}
    - {fileID: -7371972079557420496, guid: 17e71f00607a1704bb2ee17e0f6b3802, type: 3}
    - {fileID: 7122593345317962848, guid: 17e71f00607a1704bb2ee17e0f6b3802, type: 3}
    - {fileID: -2442721795725574509, guid: 17e71f00607a1704bb2ee17e0f6b3802, type: 3}
  m_AnimationClipSettings:
    serializedVersion: 2
    m_AdditiveReferencePoseClip: {fileID: 0}
    m_AdditiveReferencePoseTime: 0
    m_StartTime: 0
    m_StopTime: 1
    m_OrientationOffsetY: 0
    m_Level: 0
    m_CycleOffset: 0
    m_HasAdditiveReferencePose: 0
    m_LoopTime: 0
    m_LoopBlend: 0
    m_LoopBlendOrientation: 0
    m_LoopBlendPositionY: 0
    m_LoopBlendPositionXZ: 0
    m_KeepOriginalOrientation: 0
    m_KeepOriginalPositionY: 1
    m_KeepOriginalPositionXZ: 0
    m_HeightFromFeet: 0
    m_Mirror: 0
  m_EditorCurves: []
  m_EulerEditorCurves: []
  m_HasGenericRootTransform: 0
  m_HasMotionFloatCurves: 0
  m_Events: []
