%YAML 1.1
%TAG !u! tag:unity3d.com,2011:
--- !u!74 &7400000
AnimationClip:
  m_ObjectHideFlags: 0
  m_CorrespondingSourceObject: {fileID: 0}
  m_PrefabInstance: {fileID: 0}
  m_PrefabAsset: {fileID: 0}
  m_Name: Enemy_Idle
  serializedVersion: 6
  m_Legacy: 0
  m_Compressed: 0
  m_UseHighQualityCurve: 1
  m_RotationCurves: []
  m_CompressedRotationCurves: []
  m_EulerCurves: []
  m_PositionCurves: []
  m_ScaleCurves: []
  m_FloatCurves: []
  m_PPtrCurves:
  - curve:
    - time: 0
      value: {fileID: 2779023822413464520, guid: ac1a574daa333f24e95024de0a216137, type: 3}
    - time: 0.016666668
      value: {fileID: -8206780490526076562, guid: ac1a574daa333f24e95024de0a216137, type: 3}
    - time: 0.033333335
      value: {fileID: 2477338608294755939, guid: ac1a574daa333f24e95024de0a216137, type: 3}
    - time: 0.05
      value: {fileID: -1523739029567859866, guid: ac1a574daa333f24e95024de0a216137, type: 3}
    - time: 0.06666667
      value: {fileID: -1400105817687828294, guid: ac1a574daa333f24e95024de0a216137, type: 3}
    - time: 0.083333336
      value: {fileID: 5296837313232140662, guid: ac1a574daa333f24e95024de0a216137, type: 3}
    - time: 0.1
      value: {fileID: -4435680284854972846, guid: ac1a574daa333f24e95024de0a216137, type: 3}
    - time: 0.11666667
      value: {fileID: -3397032686179919766, guid: ac1a574daa333f24e95024de0a216137, type: 3}
    - time: 0.13333334
      value: {fileID: -3288046236448062680, guid: ac1a574daa333f24e95024de0a216137, type: 3}
    - time: 0.15
      value: {fileID: 1471127695542811685, guid: ac1a574daa333f24e95024de0a216137, type: 3}
    - time: 0.16666667
      value: {fileID: -4881176960444864416, guid: ac1a574daa333f24e95024de0a216137, type: 3}
    - time: 0.18333334
      value: {fileID: 7323147016387520864, guid: ac1a574daa333f24e95024de0a216137, type: 3}
    - time: 0.2
      value: {fileID: -3006737428798287603, guid: ac1a574daa333f24e95024de0a216137, type: 3}
    - time: 0.21666667
      value: {fileID: 4598949012731170871, guid: ac1a574daa333f24e95024de0a216137, type: 3}
    - time: 0.23333333
      value: {fileID: 7009317260941092715, guid: ac1a574daa333f24e95024de0a216137, type: 3}
    - time: 0.25
      value: {fileID: -5889767291960203299, guid: ac1a574daa333f24e95024de0a216137, type: 3}
    - time: 0.26666668
      value: {fileID: 5124684259577151311, guid: ac1a574daa333f24e95024de0a216137, type: 3}
    - time: 0.28333333
      value: {fileID: 2006353805198399290, guid: ac1a574daa333f24e95024de0a216137, type: 3}
    - time: 0.3
      value: {fileID: -2758351041374340913, guid: ac1a574daa333f24e95024de0a216137, type: 3}
    - time: 0.31666666
      value: {fileID: 414703861494882461, guid: ac1a574daa333f24e95024de0a216137, type: 3}
    - time: 0.33333334
      value: {fileID: -5779213035317710343, guid: ac1a574daa333f24e95024de0a216137, type: 3}
    - time: 0.35
      value: {fileID: -5585598472380613960, guid: ac1a574daa333f24e95024de0a216137, type: 3}
    - time: 0.36666667
      value: {fileID: 8346603919919150230, guid: ac1a574daa333f24e95024de0a216137, type: 3}
    - time: 0.38333333
      value: {fileID: 7117452162623100453, guid: ac1a574daa333f24e95024de0a216137, type: 3}
    - time: 0.4
      value: {fileID: 7331390703600691885, guid: ac1a574daa333f24e95024de0a216137, type: 3}
    - time: 0.41666666
      value: {fileID: -4733281475762302453, guid: ac1a574daa333f24e95024de0a216137, type: 3}
    - time: 0.43333334
      value: {fileID: -1401678658997007775, guid: ac1a574daa333f24e95024de0a216137, type: 3}
    - time: 0.45
      value: {fileID: -546499098730262660, guid: ac1a574daa333f24e95024de0a216137, type: 3}
    - time: 0.46666667
      value: {fileID: 1734704789651207052, guid: ac1a574daa333f24e95024de0a216137, type: 3}
    - time: 0.48333332
      value: {fileID: -832811439069073385, guid: ac1a574daa333f24e95024de0a216137, type: 3}
    - time: 0.5
      value: {fileID: -6917078917762764141, guid: ac1a574daa333f24e95024de0a216137, type: 3}
    - time: 0.51666665
      value: {fileID: 441467231504028629, guid: ac1a574daa333f24e95024de0a216137, type: 3}
    - time: 0.53333336
      value: {fileID: -5143025757759040107, guid: ac1a574daa333f24e95024de0a216137, type: 3}
    - time: 0.55
      value: {fileID: 6333641134720182485, guid: ac1a574daa333f24e95024de0a216137, type: 3}
    - time: 0.56666666
      value: {fileID: -8603578127393079854, guid: ac1a574daa333f24e95024de0a216137, type: 3}
    - time: 0.5833333
      value: {fileID: 1040843220620215490, guid: ac1a574daa333f24e95024de0a216137, type: 3}
    - time: 0.6
      value: {fileID: 985173428350452726, guid: ac1a574daa333f24e95024de0a216137, type: 3}
    - time: 0.6166667
      value: {fileID: 749233909953333117, guid: ac1a574daa333f24e95024de0a216137, type: 3}
    - time: 0.6333333
      value: {fileID: 1858218630085658872, guid: ac1a574daa333f24e95024de0a216137, type: 3}
    - time: 0.65
      value: {fileID: 8863449103332446906, guid: ac1a574daa333f24e95024de0a216137, type: 3}
    - time: 0.6666667
      value: {fileID: 7509031783603938725, guid: ac1a574daa333f24e95024de0a216137, type: 3}
    - time: 0.68333334
      value: {fileID: -3739083013160485796, guid: ac1a574daa333f24e95024de0a216137, type: 3}
    - time: 0.7
      value: {fileID: -585747796936805101, guid: ac1a574daa333f24e95024de0a216137, type: 3}
    - time: 0.71666664
      value: {fileID: -6745697609338793799, guid: ac1a574daa333f24e95024de0a216137, type: 3}
    - time: 0.73333335
      value: {fileID: -5464770665919275048, guid: ac1a574daa333f24e95024de0a216137, type: 3}
    - time: 0.75
      value: {fileID: 995834575751250482, guid: ac1a574daa333f24e95024de0a216137, type: 3}
    - time: 0.76666665
      value: {fileID: -5222757194378040085, guid: ac1a574daa333f24e95024de0a216137, type: 3}
    - time: 0.78333336
      value: {fileID: 4861130423962763452, guid: ac1a574daa333f24e95024de0a216137, type: 3}
    - time: 0.8
      value: {fileID: -3532225365651825173, guid: ac1a574daa333f24e95024de0a216137, type: 3}
    - time: 0.81666666
      value: {fileID: 4898967466999221177, guid: ac1a574daa333f24e95024de0a216137, type: 3}
    - time: 0.8333333
      value: {fileID: -7588581655059728020, guid: ac1a574daa333f24e95024de0a216137, type: 3}
    - time: 0.85
      value: {fileID: -3435745972159985573, guid: ac1a574daa333f24e95024de0a216137, type: 3}
    - time: 0.8666667
      value: {fileID: 6404030502968962371, guid: ac1a574daa333f24e95024de0a216137, type: 3}
    - time: 0.8833333
      value: {fileID: 4755652910194339012, guid: ac1a574daa333f24e95024de0a216137, type: 3}
    - time: 0.9
      value: {fileID: 3381463929988912571, guid: ac1a574daa333f24e95024de0a216137, type: 3}
    - time: 0.9166667
      value: {fileID: -6285619765856409094, guid: ac1a574daa333f24e95024de0a216137, type: 3}
    - time: 0.93333334
      value: {fileID: -2611026049590885989, guid: ac1a574daa333f24e95024de0a216137, type: 3}
    - time: 0.95
      value: {fileID: 5354001612124845052, guid: ac1a574daa333f24e95024de0a216137, type: 3}
    - time: 0.96666664
      value: {fileID: -6908152786629191994, guid: ac1a574daa333f24e95024de0a216137, type: 3}
    - time: 0.98333335
      value: {fileID: 3698907665101027356, guid: ac1a574daa333f24e95024de0a216137, type: 3}
    attribute: m_Sprite
    path: 
    classID: 212
    script: {fileID: 0}
  m_SampleRate: 60
  m_WrapMode: 0
  m_Bounds:
    m_Center: {x: 0, y: 0, z: 0}
    m_Extent: {x: 0, y: 0, z: 0}
  m_ClipBindingConstant:
    genericBindings:
    - serializedVersion: 2
      path: 0
      attribute: 0
      script: {fileID: 0}
      typeID: 212
      customType: 23
      isPPtrCurve: 1
    pptrCurveMapping:
    - {fileID: 2779023822413464520, guid: ac1a574daa333f24e95024de0a216137, type: 3}
    - {fileID: -8206780490526076562, guid: ac1a574daa333f24e95024de0a216137, type: 3}
    - {fileID: 2477338608294755939, guid: ac1a574daa333f24e95024de0a216137, type: 3}
    - {fileID: -1523739029567859866, guid: ac1a574daa333f24e95024de0a216137, type: 3}
    - {fileID: -1400105817687828294, guid: ac1a574daa333f24e95024de0a216137, type: 3}
    - {fileID: 5296837313232140662, guid: ac1a574daa333f24e95024de0a216137, type: 3}
    - {fileID: -4435680284854972846, guid: ac1a574daa333f24e95024de0a216137, type: 3}
    - {fileID: -3397032686179919766, guid: ac1a574daa333f24e95024de0a216137, type: 3}
    - {fileID: -3288046236448062680, guid: ac1a574daa333f24e95024de0a216137, type: 3}
    - {fileID: 1471127695542811685, guid: ac1a574daa333f24e95024de0a216137, type: 3}
    - {fileID: -4881176960444864416, guid: ac1a574daa333f24e95024de0a216137, type: 3}
    - {fileID: 7323147016387520864, guid: ac1a574daa333f24e95024de0a216137, type: 3}
    - {fileID: -3006737428798287603, guid: ac1a574daa333f24e95024de0a216137, type: 3}
    - {fileID: 4598949012731170871, guid: ac1a574daa333f24e95024de0a216137, type: 3}
    - {fileID: 7009317260941092715, guid: ac1a574daa333f24e95024de0a216137, type: 3}
    - {fileID: -5889767291960203299, guid: ac1a574daa333f24e95024de0a216137, type: 3}
    - {fileID: 5124684259577151311, guid: ac1a574daa333f24e95024de0a216137, type: 3}
    - {fileID: 2006353805198399290, guid: ac1a574daa333f24e95024de0a216137, type: 3}
    - {fileID: -2758351041374340913, guid: ac1a574daa333f24e95024de0a216137, type: 3}
    - {fileID: 414703861494882461, guid: ac1a574daa333f24e95024de0a216137, type: 3}
    - {fileID: -5779213035317710343, guid: ac1a574daa333f24e95024de0a216137, type: 3}
    - {fileID: -5585598472380613960, guid: ac1a574daa333f24e95024de0a216137, type: 3}
    - {fileID: 8346603919919150230, guid: ac1a574daa333f24e95024de0a216137, type: 3}
    - {fileID: 7117452162623100453, guid: ac1a574daa333f24e95024de0a216137, type: 3}
    - {fileID: 7331390703600691885, guid: ac1a574daa333f24e95024de0a216137, type: 3}
    - {fileID: -4733281475762302453, guid: ac1a574daa333f24e95024de0a216137, type: 3}
    - {fileID: -1401678658997007775, guid: ac1a574daa333f24e95024de0a216137, type: 3}
    - {fileID: -546499098730262660, guid: ac1a574daa333f24e95024de0a216137, type: 3}
    - {fileID: 1734704789651207052, guid: ac1a574daa333f24e95024de0a216137, type: 3}
    - {fileID: -832811439069073385, guid: ac1a574daa333f24e95024de0a216137, type: 3}
    - {fileID: -6917078917762764141, guid: ac1a574daa333f24e95024de0a216137, type: 3}
    - {fileID: 441467231504028629, guid: ac1a574daa333f24e95024de0a216137, type: 3}
    - {fileID: -5143025757759040107, guid: ac1a574daa333f24e95024de0a216137, type: 3}
    - {fileID: 6333641134720182485, guid: ac1a574daa333f24e95024de0a216137, type: 3}
    - {fileID: -8603578127393079854, guid: ac1a574daa333f24e95024de0a216137, type: 3}
    - {fileID: 1040843220620215490, guid: ac1a574daa333f24e95024de0a216137, type: 3}
    - {fileID: 985173428350452726, guid: ac1a574daa333f24e95024de0a216137, type: 3}
    - {fileID: 749233909953333117, guid: ac1a574daa333f24e95024de0a216137, type: 3}
    - {fileID: 1858218630085658872, guid: ac1a574daa333f24e95024de0a216137, type: 3}
    - {fileID: 8863449103332446906, guid: ac1a574daa333f24e95024de0a216137, type: 3}
    - {fileID: 7509031783603938725, guid: ac1a574daa333f24e95024de0a216137, type: 3}
    - {fileID: -3739083013160485796, guid: ac1a574daa333f24e95024de0a216137, type: 3}
    - {fileID: -585747796936805101, guid: ac1a574daa333f24e95024de0a216137, type: 3}
    - {fileID: -6745697609338793799, guid: ac1a574daa333f24e95024de0a216137, type: 3}
    - {fileID: -5464770665919275048, guid: ac1a574daa333f24e95024de0a216137, type: 3}
    - {fileID: 995834575751250482, guid: ac1a574daa333f24e95024de0a216137, type: 3}
    - {fileID: -5222757194378040085, guid: ac1a574daa333f24e95024de0a216137, type: 3}
    - {fileID: 4861130423962763452, guid: ac1a574daa333f24e95024de0a216137, type: 3}
    - {fileID: -3532225365651825173, guid: ac1a574daa333f24e95024de0a216137, type: 3}
    - {fileID: 4898967466999221177, guid: ac1a574daa333f24e95024de0a216137, type: 3}
    - {fileID: -7588581655059728020, guid: ac1a574daa333f24e95024de0a216137, type: 3}
    - {fileID: -3435745972159985573, guid: ac1a574daa333f24e95024de0a216137, type: 3}
    - {fileID: 6404030502968962371, guid: ac1a574daa333f24e95024de0a216137, type: 3}
    - {fileID: 4755652910194339012, guid: ac1a574daa333f24e95024de0a216137, type: 3}
    - {fileID: 3381463929988912571, guid: ac1a574daa333f24e95024de0a216137, type: 3}
    - {fileID: -6285619765856409094, guid: ac1a574daa333f24e95024de0a216137, type: 3}
    - {fileID: -2611026049590885989, guid: ac1a574daa333f24e95024de0a216137, type: 3}
    - {fileID: 5354001612124845052, guid: ac1a574daa333f24e95024de0a216137, type: 3}
    - {fileID: -6908152786629191994, guid: ac1a574daa333f24e95024de0a216137, type: 3}
    - {fileID: 3698907665101027356, guid: ac1a574daa333f24e95024de0a216137, type: 3}
  m_AnimationClipSettings:
    serializedVersion: 2
    m_AdditiveReferencePoseClip: {fileID: 0}
    m_AdditiveReferencePoseTime: 0
    m_StartTime: 0
    m_StopTime: 1
    m_OrientationOffsetY: 0
    m_Level: 0
    m_CycleOffset: 0
    m_HasAdditiveReferencePose: 0
    m_LoopTime: 1
    m_LoopBlend: 0
    m_LoopBlendOrientation: 0
    m_LoopBlendPositionY: 0
    m_LoopBlendPositionXZ: 0
    m_KeepOriginalOrientation: 0
    m_KeepOriginalPositionY: 1
    m_KeepOriginalPositionXZ: 0
    m_HeightFromFeet: 0
    m_Mirror: 0
  m_EditorCurves: []
  m_EulerEditorCurves: []
  m_HasGenericRootTransform: 0
  m_HasMotionFloatCurves: 0
  m_Events: []
